{
  "type": "Container",
  "color": "#008AE0",
  "padding": "50.0, 50.0, 50.0, 50.0",
  "child": {
    "type": "Column",
    "crossAxisAlignment": "start",
    "children": [
      {
        "type": "SizedBox",
        "height": 150.0
      },
      {
        "type": "Text",
        "data": "Hello Hello",
        "style": {
          "type": "TextStyle",
          "color": "#FFFFFF",
          "fontSize": 33.0,
          "fontWeight": "bold"
        }
      },
      {
        "type": "Text",
        "data": "Welcome to",
        "style": {
          "type": "TextStyle",
          "color": "#FFFFFF",
          "fontSize": 22.0,
          "fontWeight": "bold"
        }
      },
      {
        "type": "Text",
        "data": "Daksa Mobile Banking",
        "style": {
          "type": "TextStyle",
          "color": "#FFFFFF",
          "fontSize": 22.0,
          "fontWeight": "bold"
        }
      }
    ]
  }
}